{
	"name": "hiendrich",
	"ancestry": "human",
	"profession": "none",
	"attributes": {
		"combat": {
			"base": 38,
			"advances": 0
		},
		"brawn": {
			"base": 36,
			"advances": 0
		},
		"agility": {
			"base": 51,
			"advances": 0
		},
		"perception": {
			"base": 46,
			"advances": 0
		},
		"intelligence": {
			"base": 40,
			"advances": 0
		},
		"willpower": {
			"base": 42,
			"advances": 0
		},
		"fellowship": {
			"base": 40,
			"advances": 0
		}
	},
	"skills": {
		"martial_melee": {
			"advances": 0
		},
		"martial_ranged": {
			"advances": 0
		},
		"simple_melee": {
			"advances": 0
		},
		"simple_ranged": {
			"advances": 0
		},
		"athletics": {
			"advances": 1
		},
		"drive": {
			"advances": 0
		},
		"intimidate": {
			"advances": 0
		},
		"toughness": {
			"advances": 1
		},
		"coordination": {
			"advances": 1
		},
		"pilot": {
			"advances": 1
		},
		"ride": {
			"advances": 0
		},
		"skulduggery": {
			"advances": 0
		},
		"stealth": {
			"advances": 1
		},
		"awareness": {
			"advances": 1
		},
		"eavesdrop": {
			"advances": 1
		},
		"scrutinize": {
			"advances": 2
		},
		"survival": {
			"advances": 1
		},
		"alchemy": {
			"advances": 0
		},
		"counterfeit": {
			"advances": 0
		},
		"education": {
			"advances": 1
		},
		"folklore": {
			"advances": 1
		},
		"gamble": {
			"advances": 1
		},
		"heal": {
			"advances": 0
		},
		"navigation": {
			"advances": 0
		},
		"warfare": {
			"advances": 0
		},
		"incantation": {
			"advances": 0
		},
		"interrogation": {
			"advances": 2
		},
		"resolve": {
			"advances": 1
		},
		"tradecraft": {
			"advances": 0
		},
		"bargain": {
			"advances": 0
		},
		"charm": {
			"advances": 0
		},
		"disguise": {
			"advances": 0
		},
		"guile": {
			"advances": 0
		},
		"handle_animal": {
			"advances": 0
		},
		"leadership": {
			"advances": 1
		},
		"rumor": {
			"advances": 1
		}
	}
}